{
  "count": 85,
  "next": "http://dev.tksunified.com:80/api/profile/patient/?page=2&page_size=50",
  "previous": null,
  "results": [
      {
          "id": "1e95b913-becf-4005-bb9a-a5a044b07331",
          "name": "A new test for me",
          "image": "http://dev.tksunified.com:80/media/uploads/profile/1e95b913-becf-4005-bb9a-a5a044b07331_wtOhw1h.jpg",
          "date_of_birth": "2000-08-21",
          "gender": "M",
          "height": 179.0,
          "weight": 79.0,
          "illness_info": "",
          "medication_info": "",
          "smoking_habit": false,
          "cigarette_per_day": null,
          "alcohol_habit": false,
          "drinks_per_day": null,
          "checkup_status": "completed",
          "last_checkup_date": "2023-08-20T21:37:58.158506+09:00"
      },
      {
          "id": "39a50d50-c72a-4852-b6de-f6e6d364f5a7",
          "name": "Airi Yamamoto",
          "image": "http://dev.tksunified.com:80/media/uploads/profile/39a50d50-c72a-4852-b6de-f6e6d364f5a7_HndooD0.jpg",
          "date_of_birth": null,
          "gender": "F",
          "height": 170.0,
          "weight": 66.0,
          "illness_info": "yes i get sick all the time",
          "medication_info": "vitamins",
          "smoking_habit": false,
          "cigarette_per_day": null,
          "alcohol_habit": false,
          "drinks_per_day": null,
          "checkup_status": "completed",
          "last_checkup_date": "2023-08-11T22:30:55.448986+09:00"
      },
      {
          "id": "0324229f-da97-4217-80ef-606e2f5c022e",
          "name": "Akari Yamada",
          "image": "http://dev.tksunified.com:80/media/uploads/profile/0324229f-da97-4217-80ef-606e2f5c022e.jpeg",
          "date_of_birth": null,
          "gender": "F",
          "height": 170.0,
          "weight": 66.0,
          "illness_info": "",
          "medication_info": "",
          "smoking_habit": false,
          "cigarette_per_day": null,
          "alcohol_habit": false,
          "drinks_per_day": null,
          "checkup_status": "pending",
          "last_checkup_date": null
      },
      {
          "id": "17554b32-780b-4a0c-9f76-025dea1462ff",
          "name": "Akito Sama",
          "image": "http://dev.tksunified.com:80/media/uploads/profile/17554b32-780b-4a0c-9f76-025dea1462ff.jpeg",
          "date_of_birth": "2023-08-15",
          "gender": "M",
          "height": 170.0,
          "weight": 66.0,
          "illness_info": "",
          "medication_info": "",
          "smoking_habit": false,
          "cigarette_per_day": null,
          "alcohol_habit": false,
          "drinks_per_day": null,
          "checkup_status": "pending",
          "last_checkup_date": null
      },
      {
          "id": "897da47c-64b3-421f-8898-db647c17b9b7",
          "name": "Amber Radolf",
          "image": "http://dev.tksunified.com:80/media/uploads/profile/897da47c-64b3-421f-8898-db647c17b9b7_8ltkVKZ.jpg",
          "date_of_birth": "2023-08-01",
          "gender": "M",
          "height": 170.0,
          "weight": 66.0,
          "illness_info": "",
          "medication_info": "",
          "smoking_habit": false,
          "cigarette_per_day": null,
          "alcohol_habit": false,
          "drinks_per_day": null,
          "checkup_status": "pending",
          "last_checkup_date": "2023-08-20T03:31:58.819535+09:00"
      },
      {
          "id": "41fd829c-156e-4524-82d5-c670199913f9",
          "name": "Bikash Lamsal",
          "image": "http://dev.tksunified.com:80/media/uploads/profile/41fd829c-156e-4524-82d5-c670199913f9_GnTjC5a.jpg",
          "date_of_birth": "1987-11-27",
          "gender": "M",
          "height": 173.0,
          "weight": 107.2,
          "illness_info": "",
          "medication_info": "777",
          "smoking_habit": true,
          "cigarette_per_day": 1,
          "alcohol_habit": true,
          "drinks_per_day": 100,
          "checkup_status": "completed",
          "last_checkup_date": "2023-09-04T22:16:22.190122+09:00"
      },
      {
          "id": "27c632ab-325b-4884-9430-8a299be1d0ff",
          "name": "Erika Kobayishi",
          "image": "http://dev.tksunified.com:80/media/uploads/profile/27c632ab-325b-4884-9430-8a299be1d0ff.jpeg",
          "date_of_birth": null,
          "gender": "F",
          "height": 170.0,
          "weight": 66.0,
          "illness_info": "",
          "medication_info": "",
          "smoking_habit": false,
          "cigarette_per_day": null,
          "alcohol_habit": false,
          "drinks_per_day": null,
          "checkup_status": "pending",
          "last_checkup_date": null
      },
      {
          "id": "2e4dd81d-a5e7-4ad6-bd54-60f57e9ea72f",
          "name": "Hadid Shekhar",
          "image": "http://dev.tksunified.com:80/media/uploads/profile/2e4dd81d-a5e7-4ad6-bd54-60f57e9ea72f.jpg",
          "date_of_birth": "2010-08-05",
          "gender": "M",
          "height": 170.0,
          "weight": 75.0,
          "illness_info": "",
          "medication_info": "",
          "smoking_habit": false,
          "cigarette_per_day": null,
          "alcohol_habit": false,
          "drinks_per_day": null,
          "checkup_status": "completed",
          "last_checkup_date": "2023-08-20T07:39:55.664272+09:00"
      },
      {
          "id": "c67c0aae-c385-4c92-a390-de5d790b7e70",
          "name": "Huwai Youbaraj",
          "image": "http://dev.tksunified.com:80/media/uploads/profile/c67c0aae-c385-4c92-a390-de5d790b7e70_1W0J0vh.jpg",
          "date_of_birth": "1994-09-03",
          "gender": "M",
          "height": 72.0,
          "weight": 69.0,
          "illness_info": "",
          "medication_info": "",
          "smoking_habit": false,
          "cigarette_per_day": null,
          "alcohol_habit": false,
          "drinks_per_day": null,
          "checkup_status": "pending",
          "last_checkup_date": null
      },
      {
          "id": "cb37a830-fd7a-4a25-a7ff-db9b298c6492",
          "name": "James Yoshida",
          "image": "http://dev.tksunified.com:80/media/uploads/profile/cb37a830-fd7a-4a25-a7ff-db9b298c6492.webp",
          "date_of_birth": null,
          "gender": "M",
          "height": 170.0,
          "weight": 66.0,
          "illness_info": "illeness",
          "medication_info": "",
          "smoking_habit": true,
          "cigarette_per_day": 2,
          "alcohol_habit": false,
          "drinks_per_day": null,
          "checkup_status": "pending",
          "last_checkup_date": null
      },
      {
          "id": "4aed5d4b-80a4-4b3b-9460-91b477873d72",
          "name": "MR Ronit NPL",
          "image": null,
          "date_of_birth": "2000-08-21",
          "gender": "M",
          "height": 175.0,
          "weight": 73.0,
          "illness_info": "asdfasdf",
          "medication_info": "grgdfasdfasdf",
          "smoking_habit": false,
          "cigarette_per_day": null,
          "alcohol_habit": true,
          "drinks_per_day": 38,
          "checkup_status": "pending",
          "last_checkup_date": null
      },
      {
          "id": "e04ddd67-ed09-46c0-ada0-abc160f63c04",
          "name": "Masaki Matsumoto",
          "image": null,
          "date_of_birth": null,
          "gender": "F",
          "height": 170.0,
          "weight": 66.0,
          "illness_info": "",
          "medication_info": "",
          "smoking_habit": false,
          "cigarette_per_day": null,
          "alcohol_habit": false,
          "drinks_per_day": null,
          "checkup_status": "pending",
          "last_checkup_date": null
      },
      {
          "id": "50561260-0dfd-428c-a6b9-e753793d7bee",
          "name": "Masato",
          "image": "http://dev.tksunified.com:80/media/uploads/profile/50561260-0dfd-428c-a6b9-e753793d7bee.jpg",
          "date_of_birth": "1967-07-31",
          "gender": "M",
          "height": 164.5,
          "weight": 65.5,
          "illness_info": "",
          "medication_info": "",
          "smoking_habit": false,
          "cigarette_per_day": null,
          "alcohol_habit": false,
          "drinks_per_day": null,
          "checkup_status": "pending",
          "last_checkup_date": "2023-08-21T15:35:20.290591+09:00"
      },
      {
          "id": "a8deabef-4073-4d37-ad54-e459cb0a9bad",
          "name": "MeridithShawn",
          "image": null,
          "date_of_birth": null,
          "gender": "F",
          "height": 177.0,
          "weight": 75.0,
          "illness_info": "",
          "medication_info": "",
          "smoking_habit": false,
          "cigarette_per_day": null,
          "alcohol_habit": false,
          "drinks_per_day": null,
          "checkup_status": "completed",
          "last_checkup_date": "2023-08-09T02:24:25.322523+09:00"
      },
      {
          "id": "8dc9023d-9997-4709-8c0e-c1201496270d",
          "name": "Mr SundayABC",
          "image": null,
          "date_of_birth": null,
          "gender": "M",
          "height": 99.0,
          "weight": 72.0,
          "illness_info": "",
          "medication_info": "",
          "smoking_habit": false,
          "cigarette_per_day": null,
          "alcohol_habit": false,
          "drinks_per_day": null,
          "checkup_status": "pending",
          "last_checkup_date": null
      },
      {
          "id": "70858544-d829-4184-bb9a-099b41f38cac",
          "name": "New check",
          "image": "http://dev.tksunified.com:80/media/uploads/profile/70858544-d829-4184-bb9a-099b41f38cac_VJtXfYw.jpg",
          "date_of_birth": "1999-08-18",
          "gender": "F",
          "height": 175.0,
          "weight": 78.0,
          "illness_info": "a",
          "medication_info": "a",
          "smoking_habit": false,
          "cigarette_per_day": null,
          "alcohol_habit": false,
          "drinks_per_day": null,
          "checkup_status": "pending",
          "last_checkup_date": "2023-08-20T01:01:51.739352+09:00"
      },
      {
          "id": "ca419c89-9613-4e1a-820f-f995f5ed357e",
          "name": "Pixel 5Android",
          "image": "http://dev.tksunified.com:80/media/uploads/profile/ca419c89-9613-4e1a-820f-f995f5ed357e_1D0T0Aq.jpg",
          "date_of_birth": "2000-08-20",
          "gender": "M",
          "height": 11.0,
          "weight": 68.0,
          "illness_info": "",
          "medication_info": "",
          "smoking_habit": true,
          "cigarette_per_day": 55,
          "alcohol_habit": false,
          "drinks_per_day": null,
          "checkup_status": "pending",
          "last_checkup_date": "2023-08-19T22:40:10.177603+09:00"
      },
      {
          "id": "7b93ee17-57e6-4821-be15-a8b1ff0fc08b",
          "name": "Rajesh Hamal",
          "image": "http://dev.tksunified.com:80/media/uploads/profile/7b93ee17-57e6-4821-be15-a8b1ff0fc08b_qAi0hmO.jpg",
          "date_of_birth": "1995-08-19",
          "gender": "F",
          "height": 120.0,
          "weight": 90.0,
          "illness_info": "Illness history",
          "medication_info": "Suppliments",
          "smoking_habit": true,
          "cigarette_per_day": 888,
          "alcohol_habit": true,
          "drinks_per_day": 888,
          "checkup_status": "pending",
          "last_checkup_date": "2023-08-24T11:22:04.068525+09:00"
      },
      {
          "id": "85335e0e-d42b-4273-8304-3a2dd3cddec4",
          "name": "Ronit Manandhar",
          "image": "http://dev.tksunified.com:80/media/uploads/profile/85335e0e-d42b-4273-8304-3a2dd3cddec4.jpg",
          "date_of_birth": null,
          "gender": null,
          "height": null,
          "weight": null,
          "illness_info": "",
          "medication_info": "",
          "smoking_habit": null,
          "cigarette_per_day": null,
          "alcohol_habit": null,
          "drinks_per_day": null,
          "checkup_status": "completed",
          "last_checkup_date": "2023-08-21T05:18:45.813066+09:00"
      },
      {
          "id": "0194f759-6ca4-407a-a3f5-3576d240e45e",
          "name": "SamanthaParker Jhonson",
          "image": "http://dev.tksunified.com:80/media/uploads/profile/0194f759-6ca4-407a-a3f5-3576d240e45e_LLKOXxG.jpg",
          "date_of_birth": null,
          "gender": "F",
          "height": 170.0,
          "weight": 60.0,
          "illness_info": "",
          "medication_info": "",
          "smoking_habit": false,
          "cigarette_per_day": null,
          "alcohol_habit": false,
          "drinks_per_day": null,
          "checkup_status": "pending",
          "last_checkup_date": null
      },
      {
          "id": "5306eb69-1d64-4c3e-a3c6-0beddd15a31c",
          "name": "Samsung FeS7",
          "image": "http://dev.tksunified.com:80/media/uploads/profile/5306eb69-1d64-4c3e-a3c6-0beddd15a31c_4KrseLu.jpg",
          "date_of_birth": "2023-08-16",
          "gender": "F",
          "height": 183.0,
          "weight": 72.0,
          "illness_info": "",
          "medication_info": "",
          "smoking_habit": true,
          "cigarette_per_day": 66,
          "alcohol_habit": false,
          "drinks_per_day": null,
          "checkup_status": "pending",
          "last_checkup_date": null
      },
      {
          "id": "356da8a2-0e84-4551-91a9-15acaadd146c",
          "name": "Sujan Tuladhar",
          "image": "http://dev.tksunified.com:80/media/uploads/profile/356da8a2-0e84-4551-91a9-15acaadd146c.jpg",
          "date_of_birth": "1983-08-18",
          "gender": "M",
          "height": 170.0,
          "weight": 66.0,
          "illness_info": "heart disease",
          "medication_info": "uric acid",
          "smoking_habit": true,
          "cigarette_per_day": 2,
          "alcohol_habit": true,
          "drinks_per_day": 1,
          "checkup_status": "pending",
          "last_checkup_date": null
      },
      {
          "id": "58bd249c-e65a-494e-a358-581824c54115",
          "name": "Sujan Tuladhar",
          "image": null,
          "date_of_birth": "2002-08-19",
          "gender": "M",
          "height": 170.0,
          "weight": 66.0,
          "illness_info": "none",
          "medication_info": "none",
          "smoking_habit": false,
          "cigarette_per_day": null,
          "alcohol_habit": false,
          "drinks_per_day": null,
          "checkup_status": "pending",
          "last_checkup_date": null
      },
      {
          "id": "05b97f04-55a1-4cf1-a9ff-24b179108b52",
          "name": "Yoshifumi Sakuma",
          "image": null,
          "date_of_birth": null,
          "gender": "M",
          "height": 170.0,
          "weight": 66.0,
          "illness_info": "",
          "medication_info": "",
          "smoking_habit": false,
          "cigarette_per_day": null,
          "alcohol_habit": false,
          "drinks_per_day": null,
          "checkup_status": "pending",
          "last_checkup_date": null
      },
      {
          "id": "473f21c1-9c83-4a85-9aae-8789577b57a9",
          "name": "Yoshifumi Sakuma",
          "image": null,
          "date_of_birth": null,
          "gender": "M",
          "height": 170.0,
          "weight": 66.0,
          "illness_info": "",
          "medication_info": "",
          "smoking_habit": false,
          "cigarette_per_day": null,
          "alcohol_habit": false,
          "drinks_per_day": null,
          "checkup_status": "pending",
          "last_checkup_date": null
      },
      {
          "id": "8dedb09b-7ee1-4dd6-b570-5b5de05bcf5d",
          "name": "Youbaraj Paudel",
          "image": "http://dev.tksunified.com:80/media/uploads/profile/8dedb09b-7ee1-4dd6-b570-5b5de05bcf5d_iE8Z7Ee.jpg",
          "date_of_birth": "1991-03-29",
          "gender": "M",
          "height": 170.6,
          "weight": 78.4,
          "illness_info": "",
          "medication_info": "Protein is supplementry",
          "smoking_habit": true,
          "cigarette_per_day": 2,
          "alcohol_habit": true,
          "drinks_per_day": 3,
          "checkup_status": "pending",
          "last_checkup_date": "2023-08-15T02:24:16.631278+09:00"
      },
      {
          "id": "e8868609-1ee3-4118-8727-49cb0e509378",
          "name": "Youbaraj Poudel",
          "image": "http://dev.tksunified.com:80/media/uploads/profile/e8868609-1ee3-4118-8727-49cb0e509378.jpg",
          "date_of_birth": null,
          "gender": null,
          "height": null,
          "weight": null,
          "illness_info": "",
          "medication_info": "",
          "smoking_habit": null,
          "cigarette_per_day": null,
          "alcohol_habit": null,
          "drinks_per_day": null,
          "checkup_status": "completed",
          "last_checkup_date": "2023-08-20T23:17:56.362058+09:00"
      },
      {
          "id": "c8d081e7-ed16-4fe3-961c-fa0a12ff4eb3",
          "name": "a1234@getnada.combabababababsbsbabahahahhhgahagagagahahshshshshshshahshshahahahahanavavababavavavabababajajauayajanananajsjatttabababajahayahabahahahs",
          "image": null,
          "date_of_birth": "2023-09-11",
          "gender": "M",
          "height": 44.44444,
          "weight": 65.0,
          "illness_info": "",
          "medication_info": "",
          "smoking_habit": false,
          "cigarette_per_day": null,
          "alcohol_habit": false,
          "drinks_per_day": null,
          "checkup_status": "pending",
          "last_checkup_date": null
      },
      {
          "id": "f6f43244-045b-419f-af57-5f441fbaec06",
          "name": "a123@getnada.com",
          "image": null,
          "date_of_birth": "2023-09-11",
          "gender": "M",
          "height": 25.0,
          "weight": 25.0,
          "illness_info": "",
          "medication_info": "",
          "smoking_habit": false,
          "cigarette_per_day": null,
          "alcohol_habit": false,
          "drinks_per_day": null,
          "checkup_status": "pending",
          "last_checkup_date": null
      },
      {
          "id": "04c3b75a-9952-46d7-a2b9-87d35cc1c6dc",
          "name": "aaaa123 aaaa",
          "image": null,
          "date_of_birth": null,
          "gender": "M",
          "height": 170.0,
          "weight": 66.0,
          "illness_info": "",
          "medication_info": "",
          "smoking_habit": false,
          "cigarette_per_day": null,
          "alcohol_habit": false,
          "drinks_per_day": null,
          "checkup_status": "pending",
          "last_checkup_date": null
      },
      {
          "id": "e9ee0836-8da1-4524-94c8-38fd738b8915",
          "name": "anil pokhrel",
          "image": null,
          "date_of_birth": null,
          "gender": "M",
          "height": 170.0,
          "weight": 66.0,
          "illness_info": "",
          "medication_info": "",
          "smoking_habit": true,
          "cigarette_per_day": 1,
          "alcohol_habit": false,
          "drinks_per_day": null,
          "checkup_status": "pending",
          "last_checkup_date": null
      },
      {
          "id": "259da73e-b193-4715-9f9b-ce031f889233",
          "name": "august@getnada.com",
          "image": null,
          "date_of_birth": null,
          "gender": null,
          "height": null,
          "weight": null,
          "illness_info": null,
          "medication_info": null,
          "smoking_habit": null,
          "cigarette_per_day": null,
          "alcohol_habit": null,
          "drinks_per_day": null,
          "checkup_status": "pending",
          "last_checkup_date": null
      },
      {
          "id": "838c58a5-5f5b-478b-8463-9f065b744645",
          "name": "caseynishu@gmail.com",
          "image": null,
          "date_of_birth": null,
          "gender": null,
          "height": null,
          "weight": null,
          "illness_info": null,
          "medication_info": null,
          "smoking_habit": null,
          "cigarette_per_day": null,
          "alcohol_habit": null,
          "drinks_per_day": null,
          "checkup_status": "pending",
          "last_checkup_date": null
      },
      {
          "id": "0d74c44a-3b3b-4fa2-afe1-e7259c33d07e",
          "name": "cloud cloud",
          "image": null,
          "date_of_birth": "2023-07-20",
          "gender": "M",
          "height": 227.0,
          "weight": 177.0,
          "illness_info": "",
          "medication_info": "nutris",
          "smoking_habit": false,
          "cigarette_per_day": null,
          "alcohol_habit": false,
          "drinks_per_day": null,
          "checkup_status": "pending",
          "last_checkup_date": null
      },
      {
          "id": "82d80ca9-8b8f-4c49-9df9-6877f585e4a3",
          "name": "fg ff",
          "image": "http://dev.tksunified.com:80/media/uploads/profile/82d80ca9-8b8f-4c49-9df9-6877f585e4a3.jpg",
          "date_of_birth": null,
          "gender": "F",
          "height": 170.0,
          "weight": 66.0,
          "illness_info": "",
          "medication_info": "",
          "smoking_habit": false,
          "cigarette_per_day": null,
          "alcohol_habit": false,
          "drinks_per_day": null,
          "checkup_status": "pending",
          "last_checkup_date": null
      },
      {
          "id": "3be1d31d-cbec-46f2-b3a3-f7fa4831c880",
          "name": "gello new test",
          "image": null,
          "date_of_birth": "2023-08-01",
          "gender": "F",
          "height": 172.0,
          "weight": 72.0,
          "illness_info": "aa",
          "medication_info": "aa",
          "smoking_habit": true,
          "cigarette_per_day": 1,
          "alcohol_habit": true,
          "drinks_per_day": 1,
          "checkup_status": "pending",
          "last_checkup_date": null
      },
      {
          "id": "674b811e-d78f-4acd-82e5-5ba7c9f18aee",
          "name": "jamesbond@blondmail.com",
          "image": null,
          "date_of_birth": null,
          "gender": null,
          "height": null,
          "weight": null,
          "illness_info": null,
          "medication_info": null,
          "smoking_habit": null,
          "cigarette_per_day": null,
          "alcohol_habit": null,
          "drinks_per_day": null,
          "checkup_status": "pending",
          "last_checkup_date": null
      },
      {
          "id": "f3805c3c-75c8-4422-a972-43439545a5b8",
          "name": "jane1@getnada.com jane",
          "image": null,
          "date_of_birth": "1986-08-19",
          "gender": "M",
          "height": 170.0,
          "weight": 66.0,
          "illness_info": "",
          "medication_info": "",
          "smoking_habit": false,
          "cigarette_per_day": null,
          "alcohol_habit": false,
          "drinks_per_day": null,
          "checkup_status": "pending",
          "last_checkup_date": null
      },
      {
          "id": "30a5fecc-cfb9-40e0-ab5d-c4302331755b",
          "name": "jane22@getnada.com",
          "image": null,
          "date_of_birth": null,
          "gender": null,
          "height": null,
          "weight": null,
          "illness_info": null,
          "medication_info": null,
          "smoking_habit": null,
          "cigarette_per_day": null,
          "alcohol_habit": null,
          "drinks_per_day": null,
          "checkup_status": "pending",
          "last_checkup_date": null
      },
      {
          "id": "8e427327-ea0a-4076-ac9a-2c8c4db83ec0",
          "name": "jane@tupmail.com",
          "image": null,
          "date_of_birth": null,
          "gender": null,
          "height": null,
          "weight": null,
          "illness_info": null,
          "medication_info": null,
          "smoking_habit": null,
          "cigarette_per_day": null,
          "alcohol_habit": null,
          "drinks_per_day": null,
          "checkup_status": "pending",
          "last_checkup_date": null
      },
      {
          "id": "ab8d9cee-71a1-4771-b5a2-418ccd5359c3",
          "name": "kalekale",
          "image": null,
          "date_of_birth": null,
          "gender": "M",
          "height": 28.0,
          "weight": 69.0,
          "illness_info": "",
          "medication_info": "nutrients",
          "smoking_habit": false,
          "cigarette_per_day": null,
          "alcohol_habit": false,
          "drinks_per_day": null,
          "checkup_status": "pending",
          "last_checkup_date": null
      },
      {
          "id": "e33b9cf3-6dd8-42c7-93d1-f913f1ff19a0",
          "name": "nait0230124@gmail.com",
          "image": "http://dev.tksunified.com:80/media/uploads/profile/e33b9cf3-6dd8-42c7-93d1-f913f1ff19a0_mYyEkEK.jpg",
          "date_of_birth": "1990-09-04",
          "gender": "M",
          "height": 160.0,
          "weight": 60.0,
          "illness_info": "なし",
          "medication_info": "リリカ５ml、1日2回",
          "smoking_habit": true,
          "cigarette_per_day": 10,
          "alcohol_habit": true,
          "drinks_per_day": 1000,
          "checkup_status": "pending",
          "last_checkup_date": "2023-09-05T14:01:42.556536+09:00"
      },
      {
          "id": "5b121618-a064-418b-a87b-2a524d30ed94",
          "name": "newaaa1aaa@mailinator.com a1",
          "image": null,
          "date_of_birth": "2023-08-20",
          "gender": "F",
          "height": 170.0,
          "weight": 66.0,
          "illness_info": "",
          "medication_info": "",
          "smoking_habit": false,
          "cigarette_per_day": null,
          "alcohol_habit": false,
          "drinks_per_day": null,
          "checkup_status": "pending",
          "last_checkup_date": null
      },
      {
          "id": "863877cf-6754-496d-8357-9997d0a7a324",
          "name": "newaaaa@mailinator.com",
          "image": null,
          "date_of_birth": null,
          "gender": null,
          "height": null,
          "weight": null,
          "illness_info": null,
          "medication_info": null,
          "smoking_habit": null,
          "cigarette_per_day": null,
          "alcohol_habit": null,
          "drinks_per_day": null,
          "checkup_status": "pending",
          "last_checkup_date": null
      },
      {
          "id": "971f6bb1-bb9e-402e-ad10-59bd9b096057",
          "name": "newaaaaa@mailinator.com aaa",
          "image": null,
          "date_of_birth": "2023-08-16",
          "gender": "M",
          "height": 170.0,
          "weight": 66.0,
          "illness_info": "",
          "medication_info": "",
          "smoking_habit": false,
          "cigarette_per_day": null,
          "alcohol_habit": false,
          "drinks_per_day": null,
          "checkup_status": "pending",
          "last_checkup_date": null
      },
      {
          "id": "16359b81-1ced-464d-afec-79a464728348",
          "name": "newaaaaaa@mailinator.com",
          "image": null,
          "date_of_birth": null,
          "gender": null,
          "height": null,
          "weight": null,
          "illness_info": null,
          "medication_info": null,
          "smoking_habit": null,
          "cigarette_per_day": null,
          "alcohol_habit": null,
          "drinks_per_day": null,
          "checkup_status": "pending",
          "last_checkup_date": null
      },
      {
          "id": "a733d8b7-4f38-461e-9cd2-4cf3f71e91e5",
          "name": "neww@mailinator.com",
          "image": null,
          "date_of_birth": null,
          "gender": null,
          "height": null,
          "weight": null,
          "illness_info": null,
          "medication_info": null,
          "smoking_habit": null,
          "cigarette_per_day": null,
          "alcohol_habit": null,
          "drinks_per_day": null,
          "checkup_status": "pending",
          "last_checkup_date": null
      },
      {
          "id": "5e58d379-2e0a-4f97-a096-280a26fd6a70",
          "name": "oneplus@blondmail.com",
          "image": null,
          "date_of_birth": null,
          "gender": null,
          "height": null,
          "weight": null,
          "illness_info": null,
          "medication_info": null,
          "smoking_habit": null,
          "cigarette_per_day": null,
          "alcohol_habit": null,
          "drinks_per_day": null,
          "checkup_status": "pending",
          "last_checkup_date": null
      },
      {
          "id": "f1de9403-9ef7-45f9-839e-82c1dd44b15d",
          "name": "oneplus@fivermail.com",
          "image": null,
          "date_of_birth": null,
          "gender": null,
          "height": null,
          "weight": null,
          "illness_info": null,
          "medication_info": null,
          "smoking_habit": null,
          "cigarette_per_day": null,
          "alcohol_habit": null,
          "drinks_per_day": null,
          "checkup_status": "pending",
          "last_checkup_date": null
      },
      {
          "id": "adc53e6c-9264-4c87-bf5d-a7ff574a414c",
          "name": "p001@yopmail.com",
          "image": null,
          "date_of_birth": null,
          "gender": null,
          "height": null,
          "weight": null,
          "illness_info": null,
          "medication_info": null,
          "smoking_habit": null,
          "cigarette_per_day": null,
          "alcohol_habit": null,
          "drinks_per_day": null,
          "checkup_status": "pending",
          "last_checkup_date": null
      }
  ]
}